1.9 (p14) – CapstoneDesign1
…
# 두 자리 숫자(result1) 계산
d2 <- d2 %>%
  mutate(result1 = ifelse(dice1 <= 3, dice1 + dice2 * 10, dice1 * 10 + dice2))

# 각 result1이 나올 확률 계산 (각 조합은 1/36 확률)
prob_d2_1 <- d2 %>%
  group_by(result1) %>%
  summarise(probability = n() / 36)

# 데이터프레임 확인
print(prob_d2_1)

# A tibble: 27 × 2
   result1 probability
     <dbl>       <dbl>
 1      11      0.0278
 2      12      0.0278
 3      13      0.0278
 4      21      0.0278
 5      22      0.0278
 6      23      0.0278
 7      31      0.0278
 8      32      0.0278
 9      33      0.0278
10      41      0.0556
# ℹ 17 more rows
…
전략 2

# 두 자리 숫자(result2) 계산
d2 <- d2 %>%
  mutate(result2 = ifelse(dice1 <= 4, dice1 + dice2 * 10, dice1 * 10 + dice2))

# 각 result2이 나올 확률 계산 (각 조합은 1/36 확률)
prob_d2_2 <- d2 %>%
  group_by(result2) %>%
  summarise(probability = n() / 36)

# 데이터프레임 확인
print(prob_d2_2)

# A tibble: 28 × 2
   result2 probability
     <dbl>       <dbl>
 1      11      0.0278
 2      12      0.0278
 3      13      0.0278
 4      14      0.0278
 5      21      0.0278
 6      22      0.0278
 7      23      0.0278
 8      24      0.0278
 9      31      0.0278
10      32      0.0278
# ℹ 18 more rows
…
전략 3

# 두 자리 숫자(result3) 계산
d2 <- d2 %>%
  mutate(result3 = ifelse(dice1 <= 2, dice1 + dice2 * 10, dice1 * 10 + dice2))

# 각 result3이 나올 확률 계산 (각 조합은 1/36 확률)
prob_d2_3 <- d2 %>%
  group_by(result3) %>%
  summarise(probability = n() / 36)

# 데이터프레임 확인
print(prob_d2_3)

# A tibble: 28 × 2
   result3 probability
     <dbl>       <dbl>
 1      11      0.0278
 2      12      0.0278
 3      21      0.0278
 4      22      0.0278
 5      31      0.0556
 6      32      0.0556
 7      33      0.0278
 8      34      0.0278
 9      35      0.0278
10      36      0.0278
# ℹ 18 more rows
…
# 각 result가 나올 확률 계산 (각 조합은 1/216 확률)
prob_d3_1 <- d3 %>%
  group_by(result1) %>%
  summarise(probability = n() / 216)

# 데이터프레임 확인
print(prob_d3_1)

# A tibble: 110 × 2
   result1 probability
     <dbl>       <dbl>
 1     111     0.00463
 2     112     0.00463
 3     121     0.00463
 4     122     0.00463
 5     131     0.00926
 6     132     0.00926
 7     133     0.00463
 8     141     0.00463
 9     142     0.00463
10     143     0.00463
# ℹ 100 more rows
…
# 각 result가 나올 확률 계산 (각 조합은 1/216 확률)
prob_d3_2 <- d3 %>%
  group_by(result2) %>%
  summarise(probability = n() / 216)

# 데이터프레임 확인
print(prob_d3_2)

# A tibble: 108 × 2
   result2 probability
     <dbl>       <dbl>
 1     111     0.00463
 2     112     0.00463
 3     113     0.00463
 4     121     0.00463
 5     122     0.00463
 6     123     0.00463
 7     131     0.00463
 8     132     0.00463
 9     133     0.00463
10     211     0.00463
# ℹ 98 more rows
…
# 각 result가 나올 확률 계산 (각 조합은 1/216 확률)
prob_d3_3 <- d3 %>%
  group_by(result3) %>%
  summarise(probability = n() / 216)

# 데이터프레임 확인
print(prob_d3_3)

# A tibble: 135 × 2
   result3 probability
     <dbl>       <dbl>
 1     111     0.00463
 2     112     0.00463
 3     113     0.00463
 4     121     0.00463
 5     122     0.00463
 6     123     0.00463
 7     131     0.00463
 8     132     0.00463
 9     133     0.00463
10     141     0.00463
# ℹ 125 more rows
…
